Individual EDA: Evaluating Demographic Disparities in Pulse Oximetry Accuracy – Undetected & Undertreated
…
Analysis 1: Bias by device model and skin tone

Given that we are examining potential biases related to skin tone, it is crucial to consider the devices themselves. In this regard, my aim is to explore the variability in blood oxygen detection across individual devices, and to analyze whether there is a general pattern, specifically, if certain devices are less effective and thus skewing the overall data results across different skin colors, or if this is a generalized issue affecting all devices. This is a controlled within encounter comparison: same patient, only the device differs. Any bias difference between devices on the same sample is purely a device effect, not a patient effect.

Show code
oximetry <- oximetry |>
  mutate(
    device_brand = as.integer(floor(device)),
    device_label = paste0("Model ", as.integer(floor(device))))

# Check: how many distinct brands?
oximetry |> count(device_brand, sort = TRUE)

# A tibble: 41 × 2
   device_brand     n
          <int> <int>
 1           59 25795
 2           60 24912
 3           73  6889
 4           55  5276
 5           71  5241
 6           64  4679
 7           70  3352
 8           14  2521
 9           41  2448
10           21  2391
# ℹ 31 more rows
…
